{
    "defaultSeverity": "error",
    "extends": [
        "tslint:recommended",
        "tslint-react"
    ],
    "rules": {
        "align": [
            true,
            "parameters",
            "arguments",
            "statements"
        ],
        "ban": false,
        "class-name": true,
        "comment-format": [
            true,
            "check-space"
        ],
        "curly": [true, "ignore-same-line"],
        "eofline": false,
        "forin": true,
        "jsdoc-format": true,
        "jsx-no-lambda": true,
        "jsx-no-multiline-js": true,
        "label-position": true,
        "max-line-length": [ false, 150 ],
        "max-classes-per-file": [ false ],
        "member-ordering": [
            true,
            {
                "order": [
                    "static-field",
                    "instance-field",
                    "constructor",
                    "public-instance-method",
                    "protected-instance-method",
                    "private-instance-method"
                ]
            }

        ],
        "no-any": true,
        "no-arg": true,
        "no-bitwise": true,
        "no-consecutive-blank-lines": true,
        "no-console": [
	    true,
	    "log",
	    "debug",
	    "time",
	    "timeEnd",
	    "trace"
	],
        "no-construct": true,
        "no-consecutive-blank-lines": true,
        "no-debugger": true,
        "no-duplicate-variable": true,
        "no-empty": true,
        "no-eval": true,
        "no-shadowed-variable": true,
        "no-string-literal": true,
        "no-switch-case-fall-through": true,
        "no-trailing-whitespace": false,
        "no-unused-expression": true,
        "no-use-before-declare": true,
        "no-var-keyword": true,
        "no-var-requires": true,
        "object-literal-sort-keys": [false],
        "ordered-imports": false,
        "only-arrow-functions": [
            true,
            "allow-declarations",
            "allow-named-functions"
        ],
        "one-line": [
            true,
            "check-catch",
            "check-else",
            "check-open-brace",
            "check-whitespace"
        ],
        "radix": true,
        "semicolon": [true, "always"],
        "switch-default": true,
        "triple-equals": [ true, "allow-null-check" ],
        "typedef": [
            true,
            "parameter",
            "property-declaration"
        ],
        "typedef-whitespace": [
            true,
            {
                "call-signature": "nospace",
                "index-signature": "nospace",
                "parameter": "nospace",
                "property-declaration": "nospace",
                "variable-declaration": "nospace"
            }
        ],
        "variable-name": [true, "ban-keywords", "check-format", "allow-leading-underscore", "allow-pascal-case"],
        "whitespace": [
            true,
            "check-branch",
            "check-decl",
            "check-module",
            "check-operator",
            "check-separator",
            "check-type",
            "check-typecast"
        ],
        "arrow-parens": false,
        "quotemark": [true, "single", "jsx-double"],
        "member-access": true,
        "trailing-comma": [false, {"multiline": "never", "singleline": "never"}],
        "no-namespace": false,
        "no-empty-interface": false,
        "object-literal-shorthand": true,
        "prefer-for-of": false
    }
}
